[api-updater (non-obsolete-error-filter)] 26/01/2021 20:33:10 : Starting C:/Program Files/Unity/Hub/Editor/2020.2.0f1/Editor/Data/Tools/ScriptUpdater/APIUpdater.NonObsoleteApiUpdaterDetector.exe
[api-updater (non-obsolete-error-filter)] 
----------------------------------
jit/startup time      : 480,3665ms
moved types parse time: 51ms
candidates parse time : 1ms
C# parse time         : 362ms
candidates check time : 48ms
console write time    : 0ms

[api-updater (non-obsolete-error-filter)] 26/01/2021 20:33:19 : Starting C:/Program Files/Unity/Hub/Editor/2020.2.0f1/Editor/Data/Tools/ScriptUpdater/APIUpdater.NonObsoleteApiUpdaterDetector.exe
[api-updater (non-obsolete-error-filter)] 
----------------------------------
jit/startup time      : 64,3926ms
moved types parse time: 49ms
candidates parse time : 1ms
C# parse time         : 173ms
candidates check time : 43ms
console write time    : 0ms

[api-updater (non-obsolete-error-filter)] 26/01/2021 20:33:38 : Starting C:/Program Files/Unity/Hub/Editor/2020.2.0f1/Editor/Data/Tools/ScriptUpdater/APIUpdater.NonObsoleteApiUpdaterDetector.exe
[api-updater (non-obsolete-error-filter)] 
----------------------------------
jit/startup time      : 71,3054ms
moved types parse time: 58ms
candidates parse time : 1ms
C# parse time         : 174ms
candidates check time : 36ms
console write time    : 0ms

[api-updater (non-obsolete-error-filter)] 26/01/2021 20:34:01 : Starting C:/Program Files/Unity/Hub/Editor/2020.2.0f1/Editor/Data/Tools/ScriptUpdater/APIUpdater.NonObsoleteApiUpdaterDetector.exe
[api-updater (non-obsolete-error-filter)] 
----------------------------------
jit/startup time      : 64,5817ms
moved types parse time: 50ms
candidates parse time : 1ms
C# parse time         : 153ms
candidates check time : 18ms
console write time    : 0ms

[api-updater (non-obsolete-error-filter)] 28/01/2021 14:29:36 : Starting C:/Program Files/Unity/Hub/Editor/2020.2.0f1/Editor/Data/Tools/ScriptUpdater/APIUpdater.NonObsoleteApiUpdaterDetector.exe
[api-updater (non-obsolete-error-filter)] 
----------------------------------
jit/startup time      : 615,1351ms
moved types parse time: 62ms
candidates parse time : 1ms
C# parse time         : 359ms
candidates check time : 52ms
console write time    : 0ms

[api-updater (non-obsolete-error-filter)] 28/01/2021 19:13:12 : Starting C:/Program Files/Unity/Hub/Editor/2020.2.0f1/Editor/Data/Tools/ScriptUpdater/APIUpdater.NonObsoleteApiUpdaterDetector.exe
[api-updater (non-obsolete-error-filter)] 
----------------------------------
jit/startup time      : 479,7172ms
moved types parse time: 51ms
candidates parse time : 1ms
C# parse time         : 260ms
candidates check time : 37ms
console write time    : 0ms

[api-updater (non-obsolete-error-filter)] 28/01/2021 19:31:33 : Starting C:/Program Files/Unity/Hub/Editor/2020.2.0f1/Editor/Data/Tools/ScriptUpdater/APIUpdater.NonObsoleteApiUpdaterDetector.exe
[api-updater (non-obsolete-error-filter)] 
----------------------------------
jit/startup time      : 67,8214ms
moved types parse time: 51ms
candidates parse time : 1ms
C# parse time         : 197ms
candidates check time : 42ms
console write time    : 0ms

[api-updater (non-obsolete-error-filter)] 28/01/2021 21:58:40 : Starting C:/Program Files/Unity/Hub/Editor/2020.2.0f1/Editor/Data/Tools/ScriptUpdater/APIUpdater.NonObsoleteApiUpdaterDetector.exe
[api-updater (non-obsolete-error-filter)] 
----------------------------------
jit/startup time      : 538,4665ms
moved types parse time: 54ms
candidates parse time : 1ms
C# parse time         : 284ms
candidates check time : 42ms
console write time    : 0ms

[api-updater (non-obsolete-error-filter)] 28/01/2021 22:05:03 : Starting C:/Program Files/Unity/Hub/Editor/2020.2.0f1/Editor/Data/Tools/ScriptUpdater/APIUpdater.NonObsoleteApiUpdaterDetector.exe
[api-updater (non-obsolete-error-filter)] 
----------------------------------
jit/startup time      : 62,8345ms
moved types parse time: 53ms
candidates parse time : 1ms
C# parse time         : 204ms
candidates check time : 45ms
console write time    : 0ms

[api-updater (non-obsolete-error-filter)] 28/01/2021 23:35:30 : Starting C:/Program Files/Unity/Hub/Editor/2020.2.0f1/Editor/Data/Tools/ScriptUpdater/APIUpdater.NonObsoleteApiUpdaterDetector.exe
[api-updater (non-obsolete-error-filter)] 
----------------------------------
jit/startup time      : 69,8353ms
moved types parse time: 52ms
candidates parse time : 1ms
C# parse time         : 193ms
candidates check time : 45ms
console write time    : 0ms

[api-updater (non-obsolete-error-filter)] 28/01/2021 23:35:41 : Starting C:/Program Files/Unity/Hub/Editor/2020.2.0f1/Editor/Data/Tools/ScriptUpdater/APIUpdater.NonObsoleteApiUpdaterDetector.exe
[api-updater (non-obsolete-error-filter)] 
----------------------------------
jit/startup time      : 77,7908ms
moved types parse time: 56ms
candidates parse time : 1ms
C# parse time         : 193ms
candidates check time : 53ms
console write time    : 0ms

[api-updater (non-obsolete-error-filter)] 28/01/2021 23:35:48 : Starting C:/Program Files/Unity/Hub/Editor/2020.2.0f1/Editor/Data/Tools/ScriptUpdater/APIUpdater.NonObsoleteApiUpdaterDetector.exe
[api-updater (non-obsolete-error-filter)] 
----------------------------------
jit/startup time      : 63,8292ms
moved types parse time: 60ms
candidates parse time : 1ms
C# parse time         : 210ms
candidates check time : 50ms
console write time    : 0ms

[api-updater (non-obsolete-error-filter)] 28/01/2021 23:35:54 : Starting C:/Program Files/Unity/Hub/Editor/2020.2.0f1/Editor/Data/Tools/ScriptUpdater/APIUpdater.NonObsoleteApiUpdaterDetector.exe
[api-updater (non-obsolete-error-filter)] 
----------------------------------
jit/startup time      : 63,628ms
moved types parse time: 62ms
candidates parse time : 1ms
C# parse time         : 218ms
candidates check time : 47ms
console write time    : 0ms

[api-updater (non-obsolete-error-filter)] 29/01/2021 00:37:06 : Starting C:/Program Files/Unity/Hub/Editor/2020.2.0f1/Editor/Data/Tools/ScriptUpdater/APIUpdater.NonObsoleteApiUpdaterDetector.exe
[api-updater (non-obsolete-error-filter)] 
----------------------------------
jit/startup time      : 495,9455ms
moved types parse time: 52ms
candidates parse time : 1ms
C# parse time         : 278ms
candidates check time : 44ms
console write time    : 0ms

[api-updater (non-obsolete-error-filter)] 29/01/2021 00:37:57 : Starting C:/Program Files/Unity/Hub/Editor/2020.2.0f1/Editor/Data/Tools/ScriptUpdater/APIUpdater.NonObsoleteApiUpdaterDetector.exe
[api-updater (non-obsolete-error-filter)] 
----------------------------------
jit/startup time      : 72,863ms
moved types parse time: 55ms
candidates parse time : 1ms
C# parse time         : 196ms
candidates check time : 41ms
console write time    : 0ms

[api-updater (non-obsolete-error-filter)] 29/01/2021 10:08:36 : Starting C:/Program Files/Unity/Hub/Editor/2020.2.0f1/Editor/Data/Tools/ScriptUpdater/APIUpdater.NonObsoleteApiUpdaterDetector.exe
[api-updater (non-obsolete-error-filter)] 
----------------------------------
jit/startup time      : 556,0109ms
moved types parse time: 49ms
candidates parse time : 1ms
C# parse time         : 278ms
candidates check time : 54ms
console write time    : 0ms

[api-updater (non-obsolete-error-filter)] 29/01/2021 10:46:10 : Starting C:/Program Files/Unity/Hub/Editor/2020.2.0f1/Editor/Data/Tools/ScriptUpdater/APIUpdater.NonObsoleteApiUpdaterDetector.exe
[api-updater (non-obsolete-error-filter)] 
----------------------------------
jit/startup time      : 63,2596ms
moved types parse time: 51ms
candidates parse time : 1ms
C# parse time         : 194ms
candidates check time : 32ms
console write time    : 0ms

[api-updater (non-obsolete-error-filter)] 29/01/2021 15:47:18 : Starting C:/Program Files/Unity/Hub/Editor/2020.2.0f1/Editor/Data/Tools/ScriptUpdater/APIUpdater.NonObsoleteApiUpdaterDetector.exe
[api-updater (non-obsolete-error-filter)] 
----------------------------------
jit/startup time      : 461,764ms
moved types parse time: 59ms
candidates parse time : 1ms
C# parse time         : 288ms
candidates check time : 64ms
console write time    : 0ms

[api-updater (non-obsolete-error-filter)] 29/01/2021 15:48:21 : Starting C:/Program Files/Unity/Hub/Editor/2020.2.0f1/Editor/Data/Tools/ScriptUpdater/APIUpdater.NonObsoleteApiUpdaterDetector.exe
[api-updater (non-obsolete-error-filter)] 
----------------------------------
jit/startup time      : 70,43ms
moved types parse time: 56ms
candidates parse time : 1ms
C# parse time         : 218ms
candidates check time : 60ms
console write time    : 0ms

[api-updater (non-obsolete-error-filter)] 30/01/2021 10:14:15 : Starting C:/Program Files/Unity/Hub/Editor/2020.2.0f1/Editor/Data/Tools/ScriptUpdater/APIUpdater.NonObsoleteApiUpdaterDetector.exe
[api-updater (non-obsolete-error-filter)] 
----------------------------------
jit/startup time      : 621,927ms
moved types parse time: 58ms
candidates parse time : 2ms
C# parse time         : 297ms
candidates check time : 47ms
console write time    : 0ms

[api-updater (non-obsolete-error-filter)] 30/01/2021 10:21:38 : Starting C:/Program Files/Unity/Hub/Editor/2020.2.0f1/Editor/Data/Tools/ScriptUpdater/APIUpdater.NonObsoleteApiUpdaterDetector.exe
[api-updater (non-obsolete-error-filter)] 
----------------------------------
jit/startup time      : 64,8053ms
moved types parse time: 52ms
candidates parse time : 1ms
C# parse time         : 222ms
candidates check time : 52ms
console write time    : 0ms

[api-updater (non-obsolete-error-filter)] 30/01/2021 13:56:09 : Starting C:/Program Files/Unity/Hub/Editor/2020.2.0f1/Editor/Data/Tools/ScriptUpdater/APIUpdater.NonObsoleteApiUpdaterDetector.exe
[api-updater (non-obsolete-error-filter)] 
----------------------------------
jit/startup time      : 643,4399ms
moved types parse time: 60ms
candidates parse time : 1ms
C# parse time         : 325ms
candidates check time : 49ms
console write time    : 0ms

[api-updater (non-obsolete-error-filter)] 30/01/2021 15:36:08 : Starting C:/Program Files/Unity/Hub/Editor/2020.2.0f1/Editor/Data/Tools/ScriptUpdater/APIUpdater.NonObsoleteApiUpdaterDetector.exe
[api-updater (non-obsolete-error-filter)] 
----------------------------------
jit/startup time      : 75,4105ms
moved types parse time: 56ms
candidates parse time : 1ms
C# parse time         : 230ms
candidates check time : 48ms
console write time    : 0ms

[api-updater (non-obsolete-error-filter)] 31/01/2021 00:50:26 : Starting C:/Program Files/Unity/Hub/Editor/2020.2.0f1/Editor/Data/Tools/ScriptUpdater/APIUpdater.NonObsoleteApiUpdaterDetector.exe
[api-updater (non-obsolete-error-filter)] 
----------------------------------
jit/startup time      : 71,8222ms
moved types parse time: 58ms
candidates parse time : 1ms
C# parse time         : 206ms
candidates check time : 43ms
console write time    : 0ms

